Ebola simulation: outbreak reconstruction
…
A first look at contacts

Contact tracing is at the centre of an Ebola outbreak response. Using the function make_epicontacts in the epicontacts package, create a new epicontacts object called x. The result should look like:

x
## 
## /// Epidemiological Contacts //
## 
##   // class: epicontacts
##   // 50 cases in linelist; 36 contacts;  directed 
## 
##   // linelist
## 
## # A tibble: 50 x 4
##        id      onset    sex   age
##  *  <chr>     <date>  <chr> <dbl>
##  1 39e9dc 2017-10-10 female    62
##  2 664549 2017-10-16   male    28
##  3 b4d8aa 2017-10-17   male    54
##  4 51883d 2017-10-18   male    57
##  5 947e40 2017-10-20 female    23
##  6 9aa197 2017-10-20 female    66
##  7 e4b0a2 2017-10-21 female    13
##  8 af0ac0 2017-10-21   male    10
##  9 185911 2017-10-21 female    34
## 10 601d2e 2017-10-22   male    11
## # ... with 40 more rows
## 
##   // contacts
## 
## # A tibble: 36 x 2
##      from     to
##     <chr>  <chr>
##  1 9aa197 426b6d
##  2 39e9dc a8e9d8
##  3 c2a389 95fc1d
##  4 51883d 778316
##  5 51883d e37897
##  6 933811 99abbe
##  7 51883d 185911
##  8 b4d8aa e4b0a2
##  9 605322 1875e2
## 10 b4d8aa b5ad13
## # ... with 26 more rows
…
